<svg id="logistics-delivery-truck-in-movement" xmlns="http://www.w3.org/2000/svg" width="58.668" height="36.033" viewBox="0 0 58.668 36.033">
  <g id="Group_14" data-name="Group 14">
    <path id="Path_11" data-name="Path 11" d="M21.738,159.71a5.39,5.39,0,0,0,0,10.735,5.39,5.39,0,0,0,0-10.735Zm0,8.053a2.693,2.693,0,0,1,0-5.363,2.693,2.693,0,0,1,0,5.363Zm36.93-12.021v5.727a2.482,2.482,0,0,1-2.362,2.587H53.78a6.71,6.71,0,0,0-6.416-6.07,6.709,6.709,0,0,0-6.408,6.07H28.148a6.708,6.708,0,0,0-6.408-6.07,6.708,6.708,0,0,0-6.408,6.07H12.167a2.482,2.482,0,0,1-2.362-2.587v-5.727Zm-11.3,3.968a5.389,5.389,0,0,0,0,10.735,5.39,5.39,0,0,0,0-10.735Zm0,8.053a2.693,2.693,0,1,1,2.448-2.682A2.576,2.576,0,0,1,47.37,167.763Zm10.368-17.788-9.281-10.054a3.021,3.021,0,0,0-2.212-1H41.561V137a2.479,2.479,0,0,0-2.362-2.587H12.166A2.484,2.484,0,0,0,9.8,137v.405L.22,138.614,17.2,141.036,0,142.907l17.142,2.669L0,147.2l9.8,2.025v5.082H58.667v-1.888A3.639,3.639,0,0,0,57.738,149.975Zm-4.046.336H44.71a.388.388,0,0,1-.37-.405v-7.6a.388.388,0,0,1,.37-.405h1.708a.381.381,0,0,1,.26.112l7.266,7.6A.411.411,0,0,1,53.692,150.311Z" transform="translate(0 -134.412)" fill="#ee7129"/>
  </g>
</svg>
