<svg id="delivery-package-opened" xmlns="http://www.w3.org/2000/svg" width="48.967" height="34.126" viewBox="0 0 48.967 34.126">
  <path id="Path_13" data-name="Path 13" d="M24.405,103.254v20.178l16.065-3.049v-9.832a.689.689,0,0,1,.767-.684l1.976.306a.689.689,0,0,1,.61.684v11.422a.689.689,0,0,1-.544.673l-17.586,3.781a6.2,6.2,0,0,1-2.579.006l-17.4-3.659a.689.689,0,0,1-.547-.656l-.3-11.6a.689.689,0,0,1,.628-.7l14.778-1.3a.689.689,0,0,0,.577-.424l2.226-5.407A.689.689,0,0,1,24.405,103.254ZM4.7,96.647.066,106.56a.689.689,0,0,0,.693.977l17.416-1.76a.689.689,0,0,0,.56-.406l5.6-12.624L5.2,96.262A.689.689,0,0,0,4.7,96.647Zm19.635-3.9,5.929,13.019a.689.689,0,0,0,.572.4l17.383,1.4a.689.689,0,0,0,.682-.972l-4.533-9.938a.689.689,0,0,0-.5-.392Z" transform="translate(0 -92.747)" fill="#ee7129"/>
</svg>
