<svg id="commercial-delivery-symbol-of-a-list-on-clipboard-on-a-box-package" xmlns="http://www.w3.org/2000/svg" width="38.616" height="36.033" viewBox="0 0 38.616 36.033">
  <path id="Path_12" data-name="Path 12" d="M37.815,26.558l-4.221-5.3a2.1,2.1,0,0,0-1.644-.792H10.131a2.1,2.1,0,0,0-1.643.792l-4.221,5.3a4.328,4.328,0,0,0-.8,2.364V32.8a2.722,2.722,0,0,1,1.413-1.126,2.946,2.946,0,0,1,2.2-2.623,3.007,3.007,0,0,1,.773-.1A2.946,2.946,0,0,1,10.3,30.264a2.8,2.8,0,0,1,.481-.042,2.737,2.737,0,0,1,1.368.37l2.338-.608A3.552,3.552,0,0,1,18.82,32.53L23.4,50.143a3.554,3.554,0,0,1-2.546,4.335l-2.045.532H35.989a2.627,2.627,0,0,0,2.627-2.627V28.85A4.3,4.3,0,0,0,37.815,26.558ZM5.646,26.513l1.4-1.754h9.538l.941-1.548H8.277l1.032-1.295a1.046,1.046,0,0,1,.822-.4H31.95a1.045,1.045,0,0,1,.822.4L33.8,23.212H24.393l.525,1.548H35.037l1.4,1.754Zm.426,6.471-.59.153a1.175,1.175,0,0,0-.841,1.433l.006.023a1.175,1.175,0,0,0,1.433.841l5-1.3a1.175,1.175,0,0,0,.841-1.433l-.006-.023a1.175,1.175,0,0,0-1.433-.841l-.59.153a.59.59,0,0,1-.719-.422l-.005-.019a1.369,1.369,0,0,0-1.669-.98l-.031.008a1.369,1.369,0,0,0-.98,1.669l.005.019A.59.59,0,0,1,6.072,32.984Zm1.612-1.646a.593.593,0,1,1-.425.724A.593.593,0,0,1,7.684,31.339Zm7.37,18.114a.4.4,0,0,1-.283.483L7.5,51.828a.4.4,0,0,1-.483-.283l-.1-.383a.4.4,0,0,1,.283-.483l7.275-1.893a.4.4,0,0,1,.483.283Zm.887-7.589.1.383a.4.4,0,0,1-.283.482L5.8,45.319a.4.4,0,0,1-.483-.283l-.1-.383A.4.4,0,0,1,5.5,44.17l9.955-2.59A.4.4,0,0,1,15.941,41.864Zm-1.08-2.581-9.955,2.59a.4.4,0,0,1-.483-.283l-.1-.383a.4.4,0,0,1,.283-.482l9.955-2.59a.4.4,0,0,1,.483.283l.1.383A.4.4,0,0,1,14.861,39.283ZM14.64,46.29,6.6,48.382a.4.4,0,0,1-.483-.283l-.1-.383a.4.4,0,0,1,.283-.483l8.041-2.092a.4.4,0,0,1,.483.283l.1.383A.4.4,0,0,1,14.64,46.29Zm7.238,4.249L17.3,32.926a1.978,1.978,0,0,0-2.413-1.416l-2.335.607A1.983,1.983,0,0,1,11.28,34.9L6.353,36.182a2.017,2.017,0,0,1-2.426-1.239,2.038,2.038,0,0,1-.108-.555L1.481,35A1.978,1.978,0,0,0,.065,37.409L4.647,55.022a1.978,1.978,0,0,0,2.413,1.416l13.4-3.486A1.978,1.978,0,0,0,21.877,50.54ZM6.561,54.524,2.577,39.208l13.4-3.486,3.984,15.316Z" transform="translate(-0.001 -20.47)" fill="#ee7129"/>
</svg>
